extern void __VERIFIER_error() __attribute__ ((__noreturn__));
# 1 "/work/work/current--X--drivers/net/can/usb/kvaser_usb.ko--X--defaultlinux-3.17-rc1-bad--X--40_2a--X--svcomp/linux-3.17-rc1-bad/csd_deg_dscv/18/dscv_tempdir/rule-instrumentor/40_2a/common-model/ldv_common_model.o.c"
# 1 "<built-in>"
# 1 "<command-line>"
# 1 "././include/linux/kconfig.h" 1



# 1 "include/generated/autoconf.h" 1
# 5 "././include/linux/kconfig.h" 2
# 1 "<command-line>" 2
# 1 "/ldv/inst/kernel-rules/models/config-tracers.h" 1
# 1 "<command-line>" 2
# 1 "/work/work/current--X--drivers/net/can/usb/kvaser_usb.ko--X--defaultlinux-3.17-rc1-bad--X--40_2a--X--svcomp/linux-3.17-rc1-bad/csd_deg_dscv/18/dscv_tempdir/rule-instrumentor/40_2a/common-model/ldv_common_model.o.c"





typedef struct __va_list_tag __va_list_tag;
# 19 "include/uapi/asm-generic/int-ll64.h"
typedef signed char __s8;
typedef unsigned char __u8;
# 22 "include/uapi/asm-generic/int-ll64.h"
typedef short int __s16;
typedef short unsigned int __u16;
# 25 "include/uapi/asm-generic/int-ll64.h"
typedef int __s32;
typedef unsigned int __u32;
# 29 "include/uapi/asm-generic/int-ll64.h"
typedef long long int __s64;
typedef long long unsigned int __u64;
# 15 "include/asm-generic/int-ll64.h"
typedef signed char s8;
typedef unsigned char u8;
# 18 "include/asm-generic/int-ll64.h"
typedef short int s16;
typedef short unsigned int u16;
# 21 "include/asm-generic/int-ll64.h"
typedef int s32;
typedef unsigned int u32;
# 24 "include/asm-generic/int-ll64.h"
typedef long long int s64;
typedef long long unsigned int u64;
struct ftrace_branch_data
{
  char const
# 80 "include/linux/compiler.h"
  *func;
  char const *file;
  unsigned int line;
  union
  {
    struct
    {
      long unsigned int
# 85 "include/linux/compiler.h"
      correct;
      long unsigned int incorrect;
    };
    struct
    {
      long unsigned int
# 89 "include/linux/compiler.h"
      miss;
      long unsigned int hit;
    };
    long unsigned int miss_hit[2U];
  };
};
enum ldv_513
{
  false = 0,
  true = 1
};
# 26 "./include/uapi/linux/posix_types.h"
typedef struct
{
  long unsigned int
# 25 "./include/uapi/linux/posix_types.h"
  fds_bits[16U];
} __kernel_fd_set;
# 29 "./include/uapi/linux/posix_types.h"
typedef void (*__kernel_sighandler_t)(int);
# 32 "./include/uapi/linux/posix_types.h"
typedef int __kernel_key_t;
typedef int __kernel_mqd_t;
# 10 "./arch/x86/include/uapi/asm/posix_types_64.h"
typedef short unsigned int __kernel_old_uid_t;
typedef short unsigned int __kernel_old_gid_t;
# 14 "./arch/x86/include/uapi/asm/posix_types_64.h"
typedef long unsigned int __kernel_old_dev_t;
# 14 "./include/uapi/asm-generic/posix_types.h"
typedef long int __kernel_long_t;
typedef long unsigned int __kernel_ulong_t;
# 19 "./include/uapi/asm-generic/posix_types.h"
typedef __kernel_ulong_t __kernel_ino_t;
# 23 "./include/uapi/asm-generic/posix_types.h"
typedef unsigned int __kernel_mode_t;
# 27 "./include/uapi/asm-generic/posix_types.h"
typedef int __kernel_pid_t;
# 31 "./include/uapi/asm-generic/posix_types.h"
typedef int __kernel_ipc_pid_t;
# 35 "./include/uapi/asm-generic/posix_types.h"
typedef unsigned int __kernel_uid_t;
typedef unsigned int __kernel_gid_t;
# 40 "./include/uapi/asm-generic/posix_types.h"
typedef __kernel_long_t __kernel_suseconds_t;
# 44 "./include/uapi/asm-generic/posix_types.h"
typedef int __kernel_daddr_t;
# 48 "./include/uapi/asm-generic/posix_types.h"
typedef unsigned int __kernel_uid32_t;
typedef unsigned int __kernel_gid32_t;
# 71 "./include/uapi/asm-generic/posix_types.h"
typedef __kernel_ulong_t __kernel_size_t;
typedef __kernel_long_t __kernel_ssize_t;
typedef __kernel_long_t __kernel_ptrdiff_t;
# 80 "./include/uapi/asm-generic/posix_types.h"
typedef struct
{
  int
# 79 "./include/uapi/asm-generic/posix_types.h"
  val[2U];
} __kernel_fsid_t;
# 86 "./include/uapi/asm-generic/posix_types.h"
typedef __kernel_long_t __kernel_off_t;
typedef long long int __kernel_loff_t;
typedef __kernel_long_t __kernel_time_t;
typedef __kernel_long_t __kernel_clock_t;
typedef int __kernel_timer_t;
typedef int __kernel_clockid_t;
typedef char *__kernel_caddr_t;
typedef short unsigned int __kernel_uid16_t;
typedef short unsigned int __kernel_gid16_t;
# 32 "include/uapi/linux/types.h"
typedef __u16 __le16;
typedef __u16 __be16;
typedef __u32 __le32;
typedef __u32 __be32;
typedef __u64 __le64;
typedef __u64 __be64;
# 39 "include/uapi/linux/types.h"
typedef __u16 __sum16;
typedef __u32 __wsum;
# 12 "include/linux/types.h"
typedef __u32 __kernel_dev_t;
# 14 "include/linux/types.h"
typedef __kernel_fd_set fd_set;
typedef __kernel_dev_t dev_t;
typedef __kernel_ino_t ino_t;
typedef __kernel_mode_t mode_t;
typedef short unsigned int umode_t;
typedef __u32 nlink_t;
typedef __kernel_off_t off_t;
typedef __kernel_pid_t pid_t;
typedef __kernel_daddr_t daddr_t;
typedef __kernel_key_t key_t;
typedef __kernel_suseconds_t suseconds_t;
typedef __kernel_timer_t timer_t;
typedef __kernel_clockid_t clockid_t;
typedef __kernel_mqd_t mqd_t;
# 29 "include/linux/types.h"
typedef _Bool bool;
# 31 "include/linux/types.h"
typedef __kernel_uid32_t uid_t;
typedef __kernel_gid32_t gid_t;
typedef __kernel_uid16_t uid16_t;
typedef __kernel_gid16_t gid16_t;
# 36 "include/linux/types.h"
typedef long unsigned int uintptr_t;
# 40 "include/linux/types.h"
typedef __kernel_old_uid_t old_uid_t;
typedef __kernel_old_gid_t old_gid_t;
# 45 "include/linux/types.h"
typedef __kernel_loff_t loff_t;
# 54 "include/linux/types.h"
typedef __kernel_size_t size_t;
# 59 "include/linux/types.h"
typedef __kernel_ssize_t ssize_t;
# 64 "include/linux/types.h"
typedef __kernel_ptrdiff_t ptrdiff_t;
# 69 "include/linux/types.h"
typedef __kernel_time_t time_t;
# 74 "include/linux/types.h"
typedef __kernel_clock_t clock_t;
# 79 "include/linux/types.h"
typedef __kernel_caddr_t *caddr_t;
# 83 "include/linux/types.h"
typedef unsigned char u_char;
typedef short unsigned int u_short;
typedef unsigned int u_int;
typedef long unsigned int u_long;
# 89 "include/linux/types.h"
typedef unsigned char unchar;
typedef short unsigned int ushort;
typedef unsigned int uint;
typedef long unsigned int ulong;
# 97 "include/linux/types.h"
typedef __u8 u_int8_t;
typedef __s8 int8_t;
typedef __u16 u_int16_t;
typedef __s16 int16_t;
typedef __u32 u_int32_t;
typedef __s32 int32_t;
# 106 "include/linux/types.h"
typedef __u8 uint8_t;
typedef __u16 uint16_t;
typedef __u32 uint32_t;
# 111 "include/linux/types.h"
typedef __u64 uint64_t;
typedef __u64 u_int64_t;
typedef __s64 int64_t;
# 133 "include/linux/types.h"
typedef long unsigned int sector_t;
typedef long unsigned int blkcnt_t;
# 147 "include/linux/types.h"
typedef u64 dma_addr_t;
# 158 "include/linux/types.h"
typedef unsigned int gfp_t;
typedef unsigned int fmode_t;
typedef unsigned int oom_flags_t;
# 163 "include/linux/types.h"
typedef u64 phys_addr_t;
# 168 "include/linux/types.h"
typedef phys_addr_t resource_size_t;
# 174 "include/linux/types.h"
typedef long unsigned int irq_hw_number_t;
# 178 "include/linux/types.h"
typedef struct
{
  int
# 177 "include/linux/types.h"
  counter;
} atomic_t;
# 183 "include/linux/types.h"
typedef struct
{
  long int
# 182 "include/linux/types.h"
  counter;
} atomic64_t;
struct list_head
{
  struct list_head
# 187 "include/linux/types.h"
  *next;
  struct list_head
# 187 "include/linux/types.h"
  *prev;
};
struct hlist_head
{
  struct hlist_node *first;
};
struct hlist_node
{
  struct hlist_node *next;
  struct hlist_node
# 195 "include/linux/types.h"
  **pprev;
};
struct ustat
{
  __kernel_daddr_t f_tfree;
  __kernel_ino_t f_tinode;
  char f_fname[6U];
  char f_fpack[6U];
};
struct callback_head
{
  struct callback_head
# 211 "include/linux/types.h"
  *next;
  void (*func)(struct callback_head *);
};
# 10 "/ldv/inst/kernel-rules/verifier/rcv.h"
static inline void ldv_error(void)
{
  ERROR:;
# 12 "/ldv/inst/kernel-rules/verifier/rcv.h"
  __VERIFIER_error();
}
# 20 "/ldv/inst/kernel-rules/verifier/rcv.h"
static inline void ldv_stop(void)
{
# 21 "/ldv/inst/kernel-rules/verifier/rcv.h"
  LDV_STOP:;
# 21 "/ldv/inst/kernel-rules/verifier/rcv.h"
  goto LDV_STOP;
}
# 25 "/ldv/inst/kernel-rules/verifier/rcv.h"
int ldv_undef_int(void);
void *ldv_undef_ptr(void);
long unsigned int ldv_undef_ulong(void);
long int ldv_undef_long(void);
# 30 "/ldv/inst/kernel-rules/verifier/rcv.h"
static inline int ldv_undef_int_negative(void)
{
  int ret = ldv_undef_int ( );
# 34 "/ldv/inst/kernel-rules/verifier/rcv.h"
  if (ret >= 0)
  {
# 34 "/ldv/inst/kernel-rules/verifier/rcv.h"
    ldv_stop ( );
  }
  else
    ( void ) 0;
# 36 "/ldv/inst/kernel-rules/verifier/rcv.h"
  return ret;
}
# 39 "/ldv/inst/kernel-rules/verifier/rcv.h"
static inline int ldv_undef_int_nonpositive(void)
{
  int ret = ldv_undef_int ( );
# 43 "/ldv/inst/kernel-rules/verifier/rcv.h"
  if (ret > 0)
  {
# 43 "/ldv/inst/kernel-rules/verifier/rcv.h"
    ldv_stop ( );
  }
  else
    ( void ) 0;
# 45 "/ldv/inst/kernel-rules/verifier/rcv.h"
  return ret;
}
# 38 "/ldv/inst/kernel-rules/verifier/set.h"
typedef int Set;
typedef void *Element;
# 6 "/work/work/current--X--drivers/net/can/usb/kvaser_usb.ko--X--defaultlinux-3.17-rc1-bad--X--40_2a--X--svcomp/linux-3.17-rc1-bad/csd_deg_dscv/18/dscv_tempdir/rule-instrumentor/40_2a/common-model/ldv_common_model.c"
Set LDV_USB_URB_BUFS;
# 9 "/work/work/current--X--drivers/net/can/usb/kvaser_usb.ko--X--defaultlinux-3.17-rc1-bad--X--40_2a--X--svcomp/linux-3.17-rc1-bad/csd_deg_dscv/18/dscv_tempdir/rule-instrumentor/40_2a/common-model/ldv_common_model.c"
void ldv_usb_fill_urb(struct urb *urb)
{
# 10 "/work/work/current--X--drivers/net/can/usb/kvaser_usb.ko--X--defaultlinux-3.17-rc1-bad--X--40_2a--X--svcomp/linux-3.17-rc1-bad/csd_deg_dscv/18/dscv_tempdir/rule-instrumentor/40_2a/common-model/ldv_common_model.c"
  LDV_USB_URB_BUFS ++;
}
# 14 "/work/work/current--X--drivers/net/can/usb/kvaser_usb.ko--X--defaultlinux-3.17-rc1-bad--X--40_2a--X--svcomp/linux-3.17-rc1-bad/csd_deg_dscv/18/dscv_tempdir/rule-instrumentor/40_2a/common-model/ldv_common_model.c"
int ldv_usb_submit_urb(struct urb *urb)
{
  if (( int ) LDV_USB_URB_BUFS == 0)
  {
# 16 "/work/work/current--X--drivers/net/can/usb/kvaser_usb.ko--X--defaultlinux-3.17-rc1-bad--X--40_2a--X--svcomp/linux-3.17-rc1-bad/csd_deg_dscv/18/dscv_tempdir/rule-instrumentor/40_2a/common-model/ldv_common_model.c"
    ldv_error ( );
  }
  else
    ( void ) 0;
# 19 "/work/work/current--X--drivers/net/can/usb/kvaser_usb.ko--X--defaultlinux-3.17-rc1-bad--X--40_2a--X--svcomp/linux-3.17-rc1-bad/csd_deg_dscv/18/dscv_tempdir/rule-instrumentor/40_2a/common-model/ldv_common_model.c"
  LDV_USB_URB_BUFS --;
# 21 "/work/work/current--X--drivers/net/can/usb/kvaser_usb.ko--X--defaultlinux-3.17-rc1-bad--X--40_2a--X--svcomp/linux-3.17-rc1-bad/csd_deg_dscv/18/dscv_tempdir/rule-instrumentor/40_2a/common-model/ldv_common_model.c"
  return 1;
}
# 25 "/work/work/current--X--drivers/net/can/usb/kvaser_usb.ko--X--defaultlinux-3.17-rc1-bad--X--40_2a--X--svcomp/linux-3.17-rc1-bad/csd_deg_dscv/18/dscv_tempdir/rule-instrumentor/40_2a/common-model/ldv_common_model.c"
void ldv_initialize(void)
{
  LDV_USB_URB_BUFS = 0;
}
